*** 2020-05-16 10:11:09.197 idempiere Log (CLogFile) ***
10:11:09.196 Adempiere.startup: iDempiere(r) Release 7.1_2019-11-22 -Smart Suite ERP, CRM and SCM- (c) 1999-2019 iDempiere(r); Implementation: iDempiere - Supported by iDempiere community [16]
10:11:09.198 Ini.loadProperties: /opt/gub_new/idempiere.properties #28 [16]
10:11:09.650-----------> Activator.createHazelCastInstance: Starting hazelcast with configuration from file hazelcast.xml [16]
10:11:10.469-----------> Node: [172.31.31.178]:5701 [adempiere.gub_new/localhost] [3.11] No join method is enabled! Starting standalone. [16]
10:11:10.502 Activator.createHazelCastInstance: Hazelcast Max Size Config: PER_NODE 1000 [16]
10:11:11.299 DB.isBuildOK: Build DB=${env.ADEMPIERE_VERSION} 20080428-1232 [16]
10:11:11.300 DB.isBuildOK: Build Cl=N [16]
10:11:11.354-----------> DB.isBuildOK: Build Version Error 

The program assumes build version N, but database has build version ${env.ADEMPIERE_VERSION} 20080428-1232. 
This is likely to cause hard to fix errors. 
Please contact administrator. [16]
10:11:14.402 Language.getLanguage: Adding Language=en, Country=US, Locale=en_US [16]
10:11:14.408 Language.getLanguage: Adding Language=en, Country=US, Locale=en_US [16]
10:11:14.533 WebEnv.initWeb: Servlet Context Init Parameters: iDempiere Root
org.eclipse.jetty.servlet.SessionCookie=ROOT_SESSIONID
ServerRoot=1 [16]
10:11:14.559-----------> EMail.setFrom: you @ company.org: javax.mail.internet.AddressException: Local address contains control or whitespace in string ``you @ company.org'' [16]
10:11:14.571-----------> EMail.addTo: you @ company.org: javax.mail.internet.AddressException: Local address contains control or whitespace in string ``you @ company.org'' [16]
10:11:14.572-----------> EMail.isValid: From is invalid=null [16]
10:11:14.572-----------> EMail.isValid: From is invalid=null [16]
10:11:14.572-----------> MClient.sendEMail: Could NOT Send Email: Server started: iDempiere (ip-172-31-31-178:172.31.31.178) to you @ company.org: Invalid Data (System) [16]
10:11:14.572 WebEnv.initWeb: Servlet Init Parameter: idempiereMonitor [16]
10:11:14.573 AdempiereMonitor.init:  [16]
10:11:18.129           LoggedSessionListener.contextInitialized: context initialized [16]
10:11:19.501 AbstractActivator.getDBLock: Acquiring lock with timeout 120 for gn.gub.model / remaining attempts 4 [101]
10:11:19.502 AbstractActivator.getDBLock: Acquiring lock with timeout 120 for gn.gub.process / remaining attempts 4 [102]
10:11:19.513-----------> AdempiereActivator.installPackage: Installing gn.gub.model 7.1.0 ... [101]
10:11:19.513-----------> AdempiereActivator.installPackage: gn.gub.model 7.1.0 installed. [101]
10:11:19.516-----------> AdempiereActivator.installPackage: Installing gn.gub.process 7.1.0 ... [102]
10:11:19.516-----------> AdempiereActivator.installPackage: gn.gub.process 7.1.0 installed. [102]

*** 2020-05-16 10:12:43.391 idempiere Log (CLogFile) ***
